…
# Cleaning Data, Fixing top 10 column to be numerical
ramen.ratings <- ramen.ratings %>%
  mutate(Top.Ten = ifelse(is.na(Top.Ten), 0, Top.Ten))

#Convert to STars to numeric
ramen.ratings<- transform(ramen.ratings, Stars = as.numeric(Stars))

# Top rated ramen
ramen.ratings %>%
  group_by(Variety, Stars) %>%
  arrange(desc(Stars))
```

    ## # A tibble: 2,577 x 7
    ## # Groups:   Variety, Stars [2,525]
    ##    Review Brand      Variety                        Style Country  Stars Top.Ten
    ##     <int> <chr>      <chr>                          <chr> <chr>    <dbl>   <dbl>
    ##  1   2570 Tao Kae N~ Creamy tom Yum Kung Flavour    Pack  Thailand     5       0
    ##  2   2569 Yamachan   Yokohama Tonkotsu Shoyu        Pack  USA          5       0
    ##  3   2566 Nissin     Demae Ramen Bar Noodle Aka To~ Pack  Hong Ko~     5       0
    ##  4   2563 Yamachan   Tokyo Shoyu Ramen              Pack  USA          5       0
    ##  5   2559 Jackpot T~ Beef Ramen                     Pack  USA          5       0
    ##  6   2558 KOKA       Creamy Soup With Crushed Nood~ Cup   Singapo~     5       0
    ##  7   2552 MyKuali    Penang White Curry Rice Vermi~ Bowl  Malaysia     5       0
    ##  8   2550 Samyang F~ Paegaejang Ramen               Pack  South K~     5       0
    ##  9   2545 KOKA       Instant Noodles Laksa Singapu~ Pack  Singapo~     5       0
    ## 10   2543 KOKA       Curry Flavour Instant Noodles  Cup   Singapo~     5       0
    ## # ... with 2,567 more rows
…
